…
``` r
homicide_data_tidy %>%
  group_by(city_state) %>% 
  summarise(n_homicides = n(),
            n_unsolved = sum(unsolved)) %>%
  rowwise() %>%
  mutate(tst = list(broom::tidy(prop.test(n_unsolved, n_homicides)))) %>%
  unnest(tst)
```

    ## Warning in prop.test(n_unsolved, n_homicides): Chi-squared approximation
    ## may be incorrect

    ## # A tibble: 51 x 11
    ##    city_state n_homicides n_unsolved estimate statistic   p.value parameter
    ##    <chr>            <int>      <int>    <dbl>     <dbl>     <dbl>     <int>
    ##  1 Albuquerq…         378        146    0.386   19.1    1.23e-  5         1
    ##  2 Atlanta, …         973        373    0.383   52.5    4.32e- 13         1
    ##  3 Baltimore…        2827       1825    0.646  239.     6.46e- 54         1
    ##  4 Baton Rou…         424        196    0.462    2.27   1.32e-  1         1
    ##  5 Birmingha…         800        347    0.434   13.8    2.05e-  4         1
    ##  6 Boston, MA         614        310    0.505    0.0407 8.40e-  1         1
    ##  7 Buffalo, …         521        319    0.612   25.8    3.73e-  7         1
    ##  8 Charlotte…         687        206    0.300  109.     1.41e- 25         1
    ##  9 Chicago, …        5535       4073    0.736 1231.     1.28e-269         1
    ## 10 Cincinnat…         694        309    0.445    8.11   4.41e-  3         1
    ## # ... with 41 more rows, and 4 more variables: conf.low <dbl>,
    ## #   conf.high <dbl>, method <chr>, alternative <chr>
